{
    "name": "FHIR IG Importer",
    "description": "FHIR IG microfrontend app",
    "category": "HIE Configuration",
    "type": "esmodule",
    "url": "https://openhimconsole.coc.jembi.cloud/fhir-ig-importer",
    "showInPortal": true,
    "showInSideBar": true,
    "access_roles": [
        "admin"
    ],
    "icon": "https://fonts.gstatic.com/s/i/materialicons/medical_information/v1/24px.svg"
}